test_run_dir/Bullet_test_should_pass/Hello.vcd
$date
2025-08-14T16:34+0000
$end
$version
0.2
$end
$comment

$end
$timescale 1ns  $end
$scope module Hello $end
 $var wire 1 ! ongoing_4 $end
 $var wire 35 " HPUStageReg_4 $end
 $var wire 35 # HPUStageReg_3 $end
 $var wire 35 $ HPUStageReg_2 $end
 $var wire 35 % HPUStageReg_1 $end
 $var wire 35 & HPUStageReg_0 $end
 $var wire 1 ' end_2 $end
 $var wire 1 ( end_3 $end
 $var wire 1 ) end_0 $end
 $var wire 1 * end_1 $end
 $var wire 1 + end_4 $end
 $var wire 1 , ongoing_0 $end
 $var wire 1 - ongoing_1 $end
 $var wire 1 . ongoing_2 $end
 $var wire 1 / ongoing_3 $end
 $var wire 2 0 HPUStageReg_1_hi $end
 $var wire 35 1 io_in_0 $end
 $var wire 35 2 io_in_1 $end
 $var wire 35 3 io_in_2 $end
 $var wire 35 4 io_in_3 $end
 $var wire 35 5 io_in_4 $end
 $var wire 1 6 REG $end
 $var wire 2 7 HPUStageReg_0_hi $end
 $var wire 33 8 HPUStageReg_4_lo $end
 $var wire 1 9 header_4 $end
 $var wire 1 : header_2 $end
 $var wire 1 ; header_3 $end
 $var wire 35 < linkStageReg_3 $end
 $var wire 35 = linkStageReg_4 $end
 $var wire 35 > linkStageReg_0 $end
 $var wire 35 ? linkStageReg_1 $end
 $var wire 35 @ linkStageReg_2 $end
 $var wire 33 A HPUStageReg_1_lo $end
 $var wire 35 B io_out_4 $end
 $var wire 35 C io_out_2 $end
 $var wire 35 D io_out_3 $end
 $var wire 35 E crossbarStageReg_0 $end
 $var wire 35 F io_out_0 $end
 $var wire 35 G crossbarStageReg_1 $end
 $var wire 35 H io_out_1 $end
 $var wire 35 I crossbarStageReg_4 $end
 $var wire 35 J crossbarStageReg_2 $end
 $var wire 35 K crossbarStageReg_3 $end
 $var wire 2 L HPUStageReg_2_hi $end
 $var wire 32 M data_0 $end
 $var wire 32 N data_2 $end
 $var wire 32 O data_1 $end
 $var wire 32 P data_4 $end
 $var wire 32 Q data_3 $end
 $var wire 33 R HPUStageReg_0_lo $end
 $var wire 34 S headerData_0 $end
 $var wire 34 T headerData_1 $end
 $var wire 34 U headerData_2 $end
 $var wire 34 V headerData_3 $end
 $var wire 34 W headerData_4 $end
 $var wire 1 X reset $end
 $var wire 33 Y HPUStageReg_2_lo $end
 $var wire 2 Z HPUStageReg_3_hi $end
 $var wire 1 [ valid_0 $end
 $var wire 1 \ valid_1 $end
 $var wire 1 ] valid_2 $end
 $var wire 1 ^ header_0 $end
 $var wire 1 _ valid_3 $end
 $var wire 1 ` header_1 $end
 $var wire 1 a valid_4 $end
 $var wire 1 b REG_2 $end
 $var wire 1 c REG_1 $end
 $var wire 1 d REG_4 $end
 $var wire 1 e REG_3 $end
 $var wire 1 f clock $end
 $var wire 2 g direction_4 $end
 $var wire 2 h direction_0 $end
 $var wire 2 i direction_1 $end
 $var wire 2 j direction_2 $end
 $var wire 2 k direction_3 $end
 $var wire 33 l HPUStageReg_3_lo $end
 $var wire 2 m HPUStageReg_4_hi $end
$upscope $end
$enddefinitions $end
$dumpvars
b00 7
06
09
b00 0
0:
b000000000000000000000000000000000 R
0;
b000000000000000000000000000000000 Y
b000000000000000000000000000000000 l
b00000000000000000000000000000000000 1
b00000000000000000000000000000000000 $
b00000000000000000000000000000000000 %
b00000000000000000000000000000000000 "
b00000000000000000000000000000000000 #
b00000000000000000000000000000000000 &
b00000000000000000000000000000000000 <
b00000000000000000000000000000000000 =
b0000000000000000000000000000000000 S
b00000000000000000000000000000000000 @
b0000000000000000000000000000000000 U
b00000000000000000000000000000000000 >
b0000000000000000000000000000000000 T
b00000000000000000000000000000000000 ?
b0000000000000000000000000000000000 W
0X
b00000000000000000000000000000000000 4
b0000000000000000000000000000000000 V
b00000000000000000000000000000000000 5
b00000000000000000000000000000000000 2
0[
b00000000000000000000000000000000000 3
0\
0]
0^
0_
0`
0a
0b
b00000000000000000000000000000000000 J
0c
b00000000000000000000000000000000000 K
0d
0e
0f
b00000000000000000000000000000000000 D
b00000000000000000000000000000000000 E
b00000000000000000000000000000000000 B
b00000000000000000000000000000000000 C
b00000000000000000000000000000000000 H
b00000000000000000000000000000000000 I
b00000000000000000000000000000000000 F
b00000000000000000000000000000000000 G
b00 i
b00 h
b00 g
b00 m
b00 k
b00 j
b00000000000000000000000000000000 M
b000000000000000000000000000000000 A
b00 Z
b000000000000000000000000000000000 8
0!
b00 L
0'
0(
0)
0*
0+
0,
b00000000000000000000000000000000 O
0-
b00000000000000000000000000000000 N
0.
b00000000000000000000000000000000 Q
0/
b00000000000000000000000000000000 P
$end
#0
1X
#1
1f
#6
b11000011100000000000000000000000000 2
b11000011100000000000000000000000000 3
0f
0X
#11
b11000011100000000000000000000000000 @
1`
b001110000000000000000000000000000 A
1f
b11 L
b01110000000000000000000000000000 N
b01110000000000000000000000000000 O
b11 0
b0001110000000000000000000000000000 T
b0001110000000000000000000000000000 U
b001110000000000000000000000000000 Y
1:
1\
1]
b11000011100000000000000000000000000 ?
#16
b10000000000000000000000000111110000 2
b10000000000000000000000000111110001 3
0f
#21
b10000000000000000000000000111110001 @
0`
b000000000000000000000000111110000 A
b11001110000000000000000000000000000 $
b11001110000000000000000000000000000 %
1f
b01 i
b01 j
b10 L
1-
1.
b00000000000000000000000111110001 N
b00000000000000000000000111110000 O
b10 0
b0000000000000000000000011111000000 T
b0000000000000000000000011111000100 U
b000000000000000000000000111110001 Y
0:
b10000000000000000000000000111110000 ?
#26
b10000000000000000000000000111110010 2
b10100000000000000000000000111110011 3
0f
#31
b10100000000000000000000000111110011 @
b000000000000000000000000111110010 A
b11001110000000000000000000000000000 B
b10000000000000000000000000111110001 $
b10000000000000000000000000111110000 %
1f
1'
b11001110000000000000000000000000000 G
b11001110000000000000000000000000000 H
b11001110000000000000000000000000000 I
b00000000000000000000000111110011 N
b00000000000000000000000111110010 O
b0000000000000000000000011111001000 T
b0000000000000000000000011111001100 U
b100000000000000000000000111110011 Y
b10000000000000000000000000111110010 ?
#36
b10100000000000000000000000111110100 2
b00000000000000000000000000000000000 3
0f
#41
b00000000000000000000000000000000000 @
b100000000000000000000000111110100 A
b10000000000000000000000000111110000 B
1b
b10100000000000000000000000111110011 $
b10000000000000000000000000111110010 %
1f
0'
b10000000000000000000000000111110001 G
b10000000000000000000000000111110001 H
b10000000000000000000000000111110000 I
1*
b00 L
b00000000000000000000000000000000 N
b00000000000000000000000111110100 O
b0000000000000000000000011111010000 T
b0000000000000000000000000000000000 U
b000000000000000000000000000000000 Y
0]
b10100000000000000000000000111110100 ?
#46
b00000000000000000000000000000000000 2
0f
#51
b000000000000000000000000000000000 A
b10000000000000000000000000111110010 B
0b
1c
b00000000000000000000000000000000000 $
b10100000000000000000000000111110100 %
1f
b10100000000000000000000000111110011 G
b10100000000000000000000000111110011 H
b10000000000000000000000000111110010 I
0*
0.
b00000000000000000000000000000000 O
b00 0
b0000000000000000000000000000000000 T
0\
b00000000000000000000000000000000000 ?
#56
0f
#61
b10100000000000000000000000111110100 B
0c
b00000000000000000000000000000000000 %
1f
b00000000000000000000000000000000000 G
b00000000000000000000000000000000000 H
b10100000000000000000000000111110100 I
0-
#66
0f
#71
b00000000000000000000000000000000000 B
1f
b00000000000000000000000000000000000 I
