test_run_dir/Bullet_test_should_pass/Main.vcd
$date
2025-08-14T17:28+0000
$end
$version
0.2
$end
$comment

$end
$timescale 1ns  $end
$scope module Main $end
 $var wire 35 ? io_out_2 $end
 $var wire 35 @ io_out_3 $end
 $var wire 35 A io_out_0 $end
 $var wire 35 B io_out_1 $end
 $var wire 1 w clock $end
 $var wire 35 "1 io_in_0 $end
 $var wire 35 "3 io_in_1 $end
 $var wire 35 "5 io_in_2 $end
 $var wire 35 "7 io_in_3 $end
 $var wire 1 "M reset $end
 $var wire 1 #% router_0 $end
 $var wire 1 #& router_1 $end
 $var wire 1 #' router_2 $end
 $var wire 1 #( router_3 $end
  $scope module router_0 $end
   $var wire 1 ( ongoing_2 $end
   $var wire 1 ) ongoing_3 $end
   $var wire 1 * ongoing_0 $end
   $var wire 1 + ongoing_1 $end
   $var wire 1 , ongoing_4 $end
   $var wire 35 - crossbarStageReg_4 $end
   $var wire 35 . crossbarStageReg_2 $end
   $var wire 35 / crossbarStageReg_3 $end
   $var wire 35 0 io_in_0 $end
   $var wire 35 1 io_in_3 $end
   $var wire 35 3 io_in_4 $end
   $var wire 35 4 io_in_1 $end
   $var wire 35 6 io_in_2 $end
   $var wire 35 : crossbarStageReg_0 $end
   $var wire 35 ; crossbarStageReg_1 $end
   $var wire 35 M io_out_4 $end
   $var wire 35 Q io_out_2 $end
   $var wire 35 S io_out_3 $end
   $var wire 35 U io_out_0 $end
   $var wire 35 V io_out_1 $end
   $var wire 1 g end_4 $end
   $var wire 1 h end_0 $end
   $var wire 1 i end_1 $end
   $var wire 1 j end_2 $end
   $var wire 1 k end_3 $end
   $var wire 2 v HPUStageReg_1_hi $end
   $var wire 2 x HPUStageReg_3_hi $end
   $var wire 33 y HPUStageReg_1_lo $end
   $var wire 34 "- headerData_4 $end
   $var wire 33 ". HPUStageReg_3_lo $end
   $var wire 35 "; HPUStageReg_4 $end
   $var wire 35 "< HPUStageReg_0 $end
   $var wire 35 "> HPUStageReg_1 $end
   $var wire 35 "@ HPUStageReg_2 $end
   $var wire 35 "B HPUStageReg_3 $end
   $var wire 34 "E headerData_1 $end
   $var wire 34 "F headerData_0 $end
   $var wire 34 "G headerData_3 $end
   $var wire 34 "H headerData_2 $end
   $var wire 35 "^ linkStageReg_4 $end
   $var wire 35 "_ linkStageReg_3 $end
   $var wire 35 "a linkStageReg_2 $end
   $var wire 35 "b linkStageReg_1 $end
   $var wire 35 "c linkStageReg_0 $end
   $var wire 1 "w reset $end
   $var wire 2 "z HPUStageReg_0_hi $end
   $var wire 2 #- HPUStageReg_2_hi $end
   $var wire 33 #. HPUStageReg_0_lo $end
   $var wire 1 #1 REG_4 $end
   $var wire 1 #2 REG_3 $end
   $var wire 1 #3 REG_2 $end
   $var wire 1 #4 REG_1 $end
   $var wire 1 #5 REG $end
   $var wire 1 #6 valid_3 $end
   $var wire 1 #7 valid_4 $end
   $var wire 1 #8 valid_1 $end
   $var wire 1 #9 valid_2 $end
   $var wire 1 #: valid_0 $end
   $var wire 32 #D data_2 $end
   $var wire 32 #E data_1 $end
   $var wire 32 #F data_4 $end
   $var wire 32 #G data_3 $end
   $var wire 32 #H data_0 $end
   $var wire 2 #R HPUStageReg_4_hi $end
   $var wire 33 #S HPUStageReg_2_lo $end
   $var wire 33 #k HPUStageReg_4_lo $end
   $var wire 2 #{ direction_4 $end
   $var wire 1 $$ header_4 $end
   $var wire 1 $% header_2 $end
   $var wire 1 $& header_3 $end
   $var wire 1 $' header_0 $end
   $var wire 1 $( header_1 $end
   $var wire 2 $) direction_3 $end
   $var wire 2 $* direction_2 $end
   $var wire 2 $+ direction_1 $end
   $var wire 2 $, direction_0 $end
   $var wire 1 $- clock $end
  $upscope $end
  $scope module router_1 $end
   $var wire 1 " valid_0 $end
   $var wire 1 # valid_1 $end
   $var wire 1 $ valid_4 $end
   $var wire 1 % valid_2 $end
   $var wire 1 & valid_3 $end
   $var wire 32 2 data_4 $end
   $var wire 32 5 data_2 $end
   $var wire 32 7 data_3 $end
   $var wire 32 8 data_0 $end
   $var wire 32 9 data_1 $end
   $var wire 33 = HPUStageReg_3_lo $end
   $var wire 1 p end_1 $end
   $var wire 1 q end_2 $end
   $var wire 1 r end_0 $end
   $var wire 1 s end_3 $end
   $var wire 1 t end_4 $end
   $var wire 1 "" header_4 $end
   $var wire 1 "# header_3 $end
   $var wire 1 "$ header_2 $end
   $var wire 1 "% header_1 $end
   $var wire 1 "& header_0 $end
   $var wire 2 "' HPUStageReg_0_hi $end
   $var wire 1 "/ reset $end
   $var wire 2 "J direction_3 $end
   $var wire 2 "K direction_4 $end
   $var wire 2 "S direction_1 $end
   $var wire 2 "T direction_2 $end
   $var wire 2 "U direction_0 $end
   $var wire 2 "V HPUStageReg_2_hi $end
   $var wire 33 "X HPUStageReg_0_lo $end
   $var wire 33 "\ HPUStageReg_4_lo $end
   $var wire 2 "y HPUStageReg_4_hi $end
   $var wire 1 #" REG $end
   $var wire 33 #$ HPUStageReg_2_lo $end
   $var wire 35 #) io_in_2 $end
   $var wire 35 #* io_in_3 $end
   $var wire 35 #+ io_in_0 $end
   $var wire 35 #, io_in_1 $end
   $var wire 35 #/ io_in_4 $end
   $var wire 1 #M ongoing_4 $end
   $var wire 1 #N ongoing_3 $end
   $var wire 1 #O ongoing_2 $end
   $var wire 1 #P ongoing_1 $end
   $var wire 1 #Q ongoing_0 $end
   $var wire 1 #T clock $end
   $var wire 34 #U headerData_4 $end
   $var wire 34 #V headerData_3 $end
   $var wire 34 #W headerData_2 $end
   $var wire 34 #X headerData_1 $end
   $var wire 34 #Y headerData_0 $end
   $var wire 1 #[ REG_2 $end
   $var wire 1 #\ REG_3 $end
   $var wire 1 #] REG_4 $end
   $var wire 1 #^ REG_1 $end
   $var wire 2 #t HPUStageReg_3_hi $end
   $var wire 35 #u crossbarStageReg_3 $end
   $var wire 35 #v crossbarStageReg_4 $end
   $var wire 35 #x crossbarStageReg_0 $end
   $var wire 35 #y crossbarStageReg_1 $end
   $var wire 35 #z crossbarStageReg_2 $end
   $var wire 33 #| HPUStageReg_1_lo $end
   $var wire 35 $. HPUStageReg_4 $end
   $var wire 35 $/ HPUStageReg_3 $end
   $var wire 35 $0 HPUStageReg_2 $end
   $var wire 35 $1 HPUStageReg_1 $end
   $var wire 35 $2 HPUStageReg_0 $end
   $var wire 35 $9 io_out_4 $end
   $var wire 35 $: io_out_3 $end
   $var wire 35 $; io_out_2 $end
   $var wire 35 $< io_out_1 $end
   $var wire 35 $= io_out_0 $end
   $var wire 2 $> HPUStageReg_1_hi $end
   $var wire 35 $D linkStageReg_4 $end
   $var wire 35 $E linkStageReg_1 $end
   $var wire 35 $F linkStageReg_0 $end
   $var wire 35 $G linkStageReg_3 $end
   $var wire 35 $H linkStageReg_2 $end
  $upscope $end
  $scope module router_2 $end
   $var wire 33 ! HPUStageReg_0_lo $end
   $var wire 2 ' HPUStageReg_2_hi $end
   $var wire 1 K reset $end
   $var wire 1 N clock $end
   $var wire 1 W REG_3 $end
   $var wire 1 X REG_4 $end
   $var wire 1 Y REG_1 $end
   $var wire 1 Z REG_2 $end
   $var wire 2 ` direction_3 $end
   $var wire 2 a direction_2 $end
   $var wire 2 b direction_4 $end
   $var wire 2 m direction_1 $end
   $var wire 2 n direction_0 $end
   $var wire 2 u HPUStageReg_0_hi $end
   $var wire 34 z headerData_3 $end
   $var wire 34 { headerData_2 $end
   $var wire 34 | headerData_4 $end
   $var wire 34 } headerData_1 $end
   $var wire 34 ~ headerData_0 $end
   $var wire 35 "0 crossbarStageReg_4 $end
   $var wire 35 "2 crossbarStageReg_2 $end
   $var wire 35 "4 crossbarStageReg_3 $end
   $var wire 35 "6 crossbarStageReg_0 $end
   $var wire 35 "8 crossbarStageReg_1 $end
   $var wire 35 "N HPUStageReg_1 $end
   $var wire 35 "O HPUStageReg_0 $end
   $var wire 35 "P HPUStageReg_4 $end
   $var wire 35 "Q HPUStageReg_3 $end
   $var wire 35 "R HPUStageReg_2 $end
   $var wire 33 "W HPUStageReg_4_lo $end
   $var wire 33 "Y HPUStageReg_2_lo $end
   $var wire 2 "Z HPUStageReg_4_hi $end
   $var wire 33 "] HPUStageReg_1_lo $end
   $var wire 1 "` REG $end
   $var wire 1 "d header_1 $end
   $var wire 1 "e ongoing_1 $end
   $var wire 1 "f header_0 $end
   $var wire 1 "g ongoing_0 $end
   $var wire 1 "h header_3 $end
   $var wire 1 "i header_2 $end
   $var wire 1 "j header_4 $end
   $var wire 1 "k ongoing_4 $end
   $var wire 1 "l ongoing_3 $end
   $var wire 1 "m ongoing_2 $end
   $var wire 35 "n linkStageReg_4 $end
   $var wire 35 "o linkStageReg_3 $end
   $var wire 35 "p linkStageReg_2 $end
   $var wire 35 "q linkStageReg_1 $end
   $var wire 35 "r linkStageReg_0 $end
   $var wire 2 "{ HPUStageReg_1_hi $end
   $var wire 35 #; io_out_1 $end
   $var wire 35 #< io_out_0 $end
   $var wire 35 #= io_out_3 $end
   $var wire 35 #> io_out_2 $end
   $var wire 35 #? io_out_4 $end
   $var wire 35 #A io_in_1 $end
   $var wire 35 #B io_in_2 $end
   $var wire 35 #C io_in_0 $end
   $var wire 35 #J io_in_3 $end
   $var wire 35 #K io_in_4 $end
   $var wire 1 #_ end_1 $end
   $var wire 1 #` end_0 $end
   $var wire 1 #a end_3 $end
   $var wire 1 #b end_2 $end
   $var wire 1 #c end_4 $end
   $var wire 33 #w HPUStageReg_3_lo $end
   $var wire 32 #} data_4 $end
   $var wire 32 #~ data_3 $end
   $var wire 32 $! data_2 $end
   $var wire 32 $" data_1 $end
   $var wire 32 $# data_0 $end
   $var wire 2 $3 HPUStageReg_3_hi $end
   $var wire 1 $? valid_4 $end
   $var wire 1 $@ valid_3 $end
   $var wire 1 $A valid_2 $end
   $var wire 1 $B valid_1 $end
   $var wire 1 $C valid_0 $end
  $upscope $end
  $scope module router_3 $end
   $var wire 35 < io_in_1 $end
   $var wire 35 > io_in_0 $end
   $var wire 35 C io_in_4 $end
   $var wire 35 D io_in_3 $end
   $var wire 35 E io_in_2 $end
   $var wire 35 F linkStageReg_1 $end
   $var wire 35 G linkStageReg_0 $end
   $var wire 35 H linkStageReg_3 $end
   $var wire 35 I linkStageReg_2 $end
   $var wire 35 J linkStageReg_4 $end
   $var wire 35 L io_out_0 $end
   $var wire 35 O io_out_3 $end
   $var wire 35 P io_out_4 $end
   $var wire 35 R io_out_1 $end
   $var wire 35 T io_out_2 $end
   $var wire 34 [ headerData_2 $end
   $var wire 34 \ headerData_1 $end
   $var wire 34 ] headerData_0 $end
   $var wire 34 ^ headerData_4 $end
   $var wire 34 _ headerData_3 $end
   $var wire 2 c direction_1 $end
   $var wire 2 d direction_2 $end
   $var wire 2 e direction_3 $end
   $var wire 2 f direction_4 $end
   $var wire 2 l direction_0 $end
   $var wire 2 o HPUStageReg_1_hi $end
   $var wire 33 "! HPUStageReg_1_lo $end
   $var wire 32 "( data_1 $end
   $var wire 32 ") data_0 $end
   $var wire 32 "* data_3 $end
   $var wire 32 "+ data_2 $end
   $var wire 32 ", data_4 $end
   $var wire 1 "9 valid_4 $end
   $var wire 33 ": HPUStageReg_2_lo $end
   $var wire 1 "= valid_3 $end
   $var wire 1 "? valid_2 $end
   $var wire 1 "A valid_1 $end
   $var wire 1 "C valid_0 $end
   $var wire 2 "D HPUStageReg_4_hi $end
   $var wire 1 "I reset $end
   $var wire 33 "L HPUStageReg_4_lo $end
   $var wire 1 "[ REG $end
   $var wire 35 "s crossbarStageReg_1 $end
   $var wire 35 "t crossbarStageReg_2 $end
   $var wire 35 "u crossbarStageReg_3 $end
   $var wire 35 "v crossbarStageReg_4 $end
   $var wire 35 "x crossbarStageReg_0 $end
   $var wire 1 "| end_4 $end
   $var wire 1 "} end_3 $end
   $var wire 1 "~ end_2 $end
   $var wire 1 #! end_1 $end
   $var wire 1 ## end_0 $end
   $var wire 2 #0 HPUStageReg_0_hi $end
   $var wire 33 #@ HPUStageReg_0_lo $end
   $var wire 2 #I HPUStageReg_2_hi $end
   $var wire 2 #L HPUStageReg_3_hi $end
   $var wire 33 #Z HPUStageReg_3_lo $end
   $var wire 1 #d header_0 $end
   $var wire 1 #e ongoing_0 $end
   $var wire 1 #f ongoing_1 $end
   $var wire 1 #g ongoing_2 $end
   $var wire 1 #h ongoing_3 $end
   $var wire 1 #i ongoing_4 $end
   $var wire 1 #j REG_4 $end
   $var wire 1 #l header_3 $end
   $var wire 1 #m header_4 $end
   $var wire 1 #n header_1 $end
   $var wire 1 #o header_2 $end
   $var wire 1 #p REG_1 $end
   $var wire 1 #q REG_2 $end
   $var wire 1 #r REG_3 $end
   $var wire 1 #s clock $end
   $var wire 35 $4 HPUStageReg_3 $end
   $var wire 35 $5 HPUStageReg_4 $end
   $var wire 35 $6 HPUStageReg_1 $end
   $var wire 35 $7 HPUStageReg_2 $end
   $var wire 35 $8 HPUStageReg_0 $end
  $upscope $end
$upscope $end
$enddefinitions $end
$dumpvars
b000000000000000000000000000000000 #$
b000000000000000000000000000000000 #.
b0000000000000000000000000000000000 {
b000000000000000000000000000000000 "L
b0000000000000000000000000000000000 z
b0000000000000000000000000000000000 }
b0000000000000000000000000000000000 |
b0000000000000000000000000000000000 _
b0000000000000000000000000000000000 ^
b00 '
b00000000000000000000000000000000 7
b00000000000000000000000000000000 9
b00000000000000000000000000000000 8
b00000000000000000000000000000000 2
b00000000000000000000000000000000 5
b000000000000000000000000000000000 ":
0K
0N
b000000000000000000000000000000000 "!
0W
0X
0Y
0Z
b0000000000000000000000000000000000 [
b0000000000000000000000000000000000 ]
b000000000000000000000000000000000 ".
b0000000000000000000000000000000000 \
0g
0h
0i
0j
0k
0p
0q
0r
b00 #{
0s
0t
0w
b000000000000000000000000000000000 #k
b000000000000000000000000000000000 #S
b000000000000000000000000000000000 #Z
b00 #t
b00 "y
b00 "{
b00 "z
b00 $>
b00 $+
0""
b0000000000000000000000000000000000 ~
b00 #I
b00 $*
0"#
b00 #L
0"$
b00 $,
0"%
0"&
b000000000000000000000000000000000 "W
b00 $)
b000000000000000000000000000000000 "Y
b00 #R
b00 $3
b000000000000000000000000000000000 "X
b000000000000000000000000000000000 "]
b000000000000000000000000000000000 "\
0"/
b000000000000000000000000000000000 #@
b00 "Z
b00 "U
b00 "T
b00 "V
0"9
0"=
0"?
0#!
0"A
0#"
0##
0"C
b00 "K
0#%
b00 "J
0#&
0#'
b00 "D
0#(
0"I
b00 "S
0"M
b00 #-
b00 #0
0#1
0#2
0#3
0#4
0#5
0#6
0#7
0#8
0#9
0#:
0"[
0"`
0$$
0$%
0"d
0$&
0"e
0$'
0"f
0$(
0"g
b00 "'
0"h
0"i
0"j
0"k
0$-
0"l
0#M
0"m
0#N
0#O
0#P
0#Q
0#T
b00 x
b00 v
0"w
b00000000000000000000000000000000 #H
0#[
b00000000000000000000000000000000 #G
0#\
b00000000000000000000000000000000 #F
0"|
0#]
b00 o
b00000000000000000000000000000000 #E
0"}
0#^
0$?
b00 n
0"~
0#_
0$@
b00 u
0#`
0$A
0#a
0$B
0#b
0$C
0#c
0#d
0#e
0#f
b00 f
0#g
b00 m
0#h
b00 l
0#i
0#j
b00 a
0#l
b00 `
0#m
0#n
0#o
b00 e
0#p
b00 d
0#q
b00 c
0#r
b00 b
0#s
b00000000000000000000000000000000 #~
b00000000000000000000000000000000 #}
b00000000000000000000000000000000 ",
b00000000000000000000000000000000 "+
b00000000000000000000000000000000 "*
b00000000000000000000000000000000 ")
b00000000000000000000000000000000 "(
b0000000000000000000000000000000000 #W
b0000000000000000000000000000000000 #X
b0000000000000000000000000000000000 #U
b0000000000000000000000000000000000 #V
b0000000000000000000000000000000000 #Y
b000000000000000000000000000000000 y
b00000000000000000000000000000000 $!
b00000000000000000000000000000000 #D
b00000000000000000000000000000000 $#
b00000000000000000000000000000000 $"
b00000000000000000000000000000000000 #x
b00000000000000000000000000000000000 #u
b00000000000000000000000000000000000 #v
b000000000000000000000000000000000 !
b00000000000000000000000000000000000 #y
b00000000000000000000000000000000000 #z
b000000000000000000000000000000000 =
b00000000000000000000000000000000000 "R
b00000000000000000000000000000000000 "P
b00000000000000000000000000000000000 "Q
b00000000000000000000000000000000000 "^
b00000000000000000000000000000000000 #?
b00000000000000000000000000000000000 "_
b00000000000000000000000000000000000 #=
b00000000000000000000000000000000000 #>
b00000000000000000000000000000000000 #;
b00000000000000000000000000000000000 #<
b00000000000000000000000000000000000 -
b00000000000000000000000000000000000 "b
b00000000000000000000000000000000000 #C
b00000000000000000000000000000000000 0
b00000000000000000000000000000000000 "c
b00000000000000000000000000000000000 1
b00000000000000000000000000000000000 #A
b00000000000000000000000000000000000 .
b00000000000000000000000000000000000 "a
b00000000000000000000000000000000000 #B
b00000000000000000000000000000000000 /
b00000000000000000000000000000000000 "n
b00000000000000000000000000000000000 $0
b00000000000000000000000000000000000 "o
b00000000000000000000000000000000000 $1
b00000000000000000000000000000000000 $.
b00000000000000000000000000000000000 $/
b00000000000000000000000000000000000 #K
b00000000000000000000000000000000000 #J
b00000000000000000000000000000000000 "v
b00000000000000000000000000000000000 $8
b00000000000000000000000000000000000 <
b00000000000000000000000000000000000 $9
b00000000000000000000000000000000000 "t
b00000000000000000000000000000000000 $6
b00000000000000000000000000000000000 :
b00000000000000000000000000000000000 "u
b00000000000000000000000000000000000 $7
b00000000000000000000000000000000000 ;
b00000000000000000000000000000000000 "r
b00000000000000000000000000000000000 $4
b00000000000000000000000000000000000 @
b00000000000000000000000000000000000 "s
b00000000000000000000000000000000000 $5
b00000000000000000000000000000000000 A
b00000000000000000000000000000000000 "p
b00000000000000000000000000000000000 $2
b00000000000000000000000000000000000 >
b00000000000000000000000000000000000 "q
b00000000000000000000000000000000000 ?
b00000000000000000000000000000000000 4
b00000000000000000000000000000000000 3
b00000000000000000000000000000000000 $<
b00000000000000000000000000000000000 $=
b00000000000000000000000000000000000 "x
b00000000000000000000000000000000000 $:
b00000000000000000000000000000000000 6
b00000000000000000000000000000000000 $;
b00000000000000000000000000000000000 $H
b00000000000000000000000000000000000 L
b00000000000000000000000000000000000 M
b00000000000000000000000000000000000 $F
b00000000000000000000000000000000000 J
b00000000000000000000000000000000000 $G
b00000000000000000000000000000000000 $D
b00000000000000000000000000000000000 P
b00000000000000000000000000000000000 $E
b00000000000000000000000000000000000 Q
b000000000000000000000000000000000 #w
b00000000000000000000000000000000000 O
b00000000000000000000000000000000000 D
b00000000000000000000000000000000000 E
b000000000000000000000000000000000 #|
b00000000000000000000000000000000000 B
b00000000000000000000000000000000000 C
b00000000000000000000000000000000000 H
b00000000000000000000000000000000000 I
b00000000000000000000000000000000000 F
b00000000000000000000000000000000000 G
b0000000000000000000000000000000000 "-
b00000000000000000000000000000000000 T
b00000000000000000000000000000000000 U
b00000000000000000000000000000000000 R
b00000000000000000000000000000000000 S
b00000000000000000000000000000000000 V
b00000000000000000000000000000000000 "6
b00000000000000000000000000000000000 "7
b00000000000000000000000000000000000 "4
b00000000000000000000000000000000000 "5
b00000000000000000000000000000000000 "2
b00000000000000000000000000000000000 "3
b00000000000000000000000000000000000 "0
b00000000000000000000000000000000000 "1
b00000000000000000000000000000000000 ">
b0000000000000000000000000000000000 "F
b0000000000000000000000000000000000 "G
b00000000000000000000000000000000000 "<
b0000000000000000000000000000000000 "E
b00000000000000000000000000000000000 ";
b00000000000000000000000000000000000 "8
b0000000000000000000000000000000000 "H
0"
0#
0$
b00000000000000000000000000000000000 "B
0%
0&
b00000000000000000000000000000000000 "@
0(
b00000000000000000000000000000000000 "N
b00000000000000000000000000000000000 #/
0)
b00000000000000000000000000000000000 "O
0*
0+
0,
b00000000000000000000000000000000000 #+
b00000000000000000000000000000000000 #,
b00000000000000000000000000000000000 #)
b00000000000000000000000000000000000 #*
$end
#0
1"w
1"I
1K
1"M
1"/
#1
1#s
1#T
1w
1$-
1N
#6
0"I
0$-
0K
0"M
0"/
0N
b11001011101010000000000000000000000 "1
0#s
0#T
b11001011101010000000000000000000000 3
0"w
0w
#11
1$$
b01110101000000000000000000000000 #F
b001110101000000000000000000000000 #k
1$-
b0101110101000000000000000000000000 "-
1N
b11 #R
1#s
1#T
1#7
1w
b11001011101010000000000000000000000 "^
#16
0#s
0#T
b10100000000000000000000000111110100 3
0w
0$-
0N
b10100000000000000000000000111110100 "1
#21
0$$
b00000000000000000000000111110100 #F
1g
b100000000000000000000000111110100 #k
1$-
b0000000000000000000000011111010000 "-
1,
1N
b10 #R
1#s
1#T
1w
b01 #{
b11001110101000000000000000000000000 ";
b10100000000000000000000000111110100 "^
#26
0#s
0#T
b00000000000000000000000000000000000 3
0w
0$-
0N
b00000000000000000000000000000000000 "1
#31
b11001110101000000000000000000000000 #C
b00000000000000000000000000000000 #F
0g
b000000000000000000000000000000000 #k
1$-
b0000000000000000000000000000000000 "-
1N
1#1
b00 #R
1#s
1#T
0#7
b11001110101000000000000000000000000 V
1w
b10100000000000000000000000111110100 ";
b11001110101000000000000000000000000 ;
b00000000000000000000000000000000000 "^
#36
0#s
0#T
0w
0$-
0N
#41
b10100000000000000000000000111110100 #C
b011010100000000000000000000000000 !
1"f
1$-
0,
1N
0#1
b11001110101000000000000000000000000 "r
1#s
1#T
b11 u
b10100000000000000000000000111110100 V
1w
b00000000000000000000000000000000000 ";
b10100000000000000000000000111110100 ;
b0111010100000000000000000000000000 ~
b11010100000000000000000000000000 $#
1$C
#46
0#s
0#T
0w
0$-
0N
#51
b00000000000000000000000000000000000 #C
b100000000000000000000000111110100 !
0"f
1"g
1$-
b11011010100000000000000000000000000 "O
1N
b11 n
b10100000000000000000000000111110100 "r
1#s
1#T
b10 u
b00000000000000000000000000000000000 V
1w
b00000000000000000000000000000000000 ;
1#`
b0000000000000000000000011111010000 ~
b00000000000000000000000111110100 $#
#56
0#s
0#T
0w
0$-
0N
#61
b000000000000000000000000000000000 !
b11011010100000000000000000000000000 E
1$-
b10100000000000000000000000111110100 "O
1N
b00000000000000000000000000000000000 "r
1#s
1#T
b11011010100000000000000000000000000 "4
b00 u
1w
b11011010100000000000000000000000000 #=
0#`
b0000000000000000000000000000000000 ~
1"`
b00000000000000000000000000000000 $#
0$C
#66
0#s
0#T
0w
0$-
0N
#71
b10100000000000000000000000111110100 E
0"g
b11 #I
b11011010100000000000000000000000000 I
b01010000000000000000000000000000 "+
1$-
1#o
b00000000000000000000000000000000000 "O
1N
1#s
1#T
b10100000000000000000000000111110100 "4
1w
b001010000000000000000000000000000 ":
b10100000000000000000000000111110100 #=
b1101010000000000000000000000000000 [
1"?
0"`
#76
0#s
0#T
0w
0$-
0N
#81
b01 d
1#g
b00000000000000000000000000000000000 E
b10 #I
b10100000000000000000000000111110100 I
b00000000000000000000000111110100 "+
1$-
0#o
1N
1#s
1#T
b00000000000000000000000000000000000 "4
b11001010000000000000000000000000000 $7
1w
b100000000000000000000000111110100 ":
b00000000000000000000000000000000000 #=
b0000000000000000000000011111010000 [
1"~
#86
0#s
0#T
0w
0$-
0N
#91
b00 #I
b11001010000000000000000000000000000 #+
b00000000000000000000000000000000000 I
b00000000000000000000000000000000 "+
1$-
1N
1#q
1#s
b11001010000000000000000000000000000 "s
1#T
b11001010000000000000000000000000000 R
b10100000000000000000000000111110100 $7
1w
b000000000000000000000000000000000 ":
b0000000000000000000000000000000000 [
0"~
0"?
#96
0#s
0#T
0w
0$-
0N
#101
1"
b11001010000000000000000000000000000 $F
1"&
0#g
b11 "'
b10100000000000000000000000111110100 #+
1$-
1N
0#q
1#s
b10100000000000000000000000111110100 "s
1#T
b10100000000000000000000000111110100 R
b00000000000000000000000000000000000 $7
b001000000000000000000000000000000 "X
b0101000000000000000000000000000000 #Y
1w
b01000000000000000000000000000000 8
#106
0#s
0#T
0w
0$-
0N
#111
b10100000000000000000000000111110100 $F
0"&
b10 "'
b00000000000000000000000000000000000 #+
1$-
1N
1#Q
b11001000000000000000000000000000000 $2
1#s
b00000000000000000000000000000000000 "s
1#T
b00000000000000000000000000000000000 R
1r
b01 "U
b100000000000000000000000111110100 "X
b0000000000000000000000011111010000 #Y
1w
b00000000000000000000000111110100 8
#116
0#s
0#T
0w
0$-
0N
#121
0"
b00000000000000000000000000000000000 $F
b00 "'
1$-
1N
b10100000000000000000000000111110100 $2
1#s
1#T
0r
b000000000000000000000000000000000 "X
b0000000000000000000000000000000000 #Y
b11001000000000000000000000000000000 #y
1w
b00000000000000000000000000000000 8
b11001000000000000000000000000000000 $<
b11001000000000000000000000000000000 >
1#"
#126
0#s
0#T
0w
0$-
0N
#131
1"C
1#d
b11001000000000000000000000000000000 G
1$-
b11 #0
1N
0#Q
b00000000000000000000000000000000000 $2
1#s
1#T
b10100000000000000000000000111110100 #y
1w
b10100000000000000000000000111110100 $<
b0100000000000000000000000000000000 ]
b10100000000000000000000000111110100 >
0#"
#136
0#s
0#T
0w
0$-
0N
#141
1##
0#d
1#e
b10100000000000000000000000111110100 G
b00000000000000000000000111110100 ")
1$-
b10 #0
1N
1#s
1#T
b11000000000000000000000000000000000 $8
b00000000000000000000000000000000000 #y
1w
b00000000000000000000000000000000000 $<
b0000000000000000000000011111010000 ]
b100000000000000000000000111110100 #@
b00000000000000000000000000000000000 >
#146
0#s
0#T
0w
0$-
0N
#151
b11000000000000000000000000000000000 @
0##
0"C
b00000000000000000000000000000000000 G
b00000000000000000000000000000000 ")
1$-
b00 #0
1N
b11000000000000000000000000000000000 P
1#s
1#T
b11000000000000000000000000000000000 "v
b10100000000000000000000000111110100 $8
1w
1"[
b0000000000000000000000000000000000 ]
b000000000000000000000000000000000 #@
#156
0#s
0#T
0w
0$-
0N
#161
b10100000000000000000000000111110100 @
b10100000000000000000000000111110100 P
1#s
1#T
0#e
b10100000000000000000000000111110100 "v
b00000000000000000000000000000000000 $8
1w
0"[
1$-
1N
#166
0#s
0#T
0w
0$-
0N
#171
b00000000000000000000000000000000000 @
b00000000000000000000000000000000000 P
1#s
1#T
b00000000000000000000000000000000000 "v
1w
1$-
1N
