test_run_dir/Bullet_test_should_pass/Main.vcd
$date
2025-08-15T09:42+0000
$end
$version
0.2
$end
$comment

$end
$timescale 1ns  $end
$scope module Main $end
 $var wire 35 ? io_out_2 $end
 $var wire 35 @ io_out_3 $end
 $var wire 35 A io_out_0 $end
 $var wire 35 B io_out_1 $end
 $var wire 1 r clock $end
 $var wire 35 "& io_in_0 $end
 $var wire 35 "( io_in_1 $end
 $var wire 35 "* io_in_2 $end
 $var wire 35 ", io_in_3 $end
 $var wire 1 "> reset $end
 $var wire 1 "t router_0 $end
 $var wire 1 "u router_1 $end
 $var wire 1 "v router_2 $end
 $var wire 1 "w router_3 $end
  $scope module router_0 $end
   $var wire 1 ( ongoing_2 $end
   $var wire 1 ) ongoing_3 $end
   $var wire 1 * ongoing_0 $end
   $var wire 1 + ongoing_1 $end
   $var wire 1 , ongoing_4 $end
   $var wire 35 - crossbarStageReg_4 $end
   $var wire 35 . crossbarStageReg_2 $end
   $var wire 35 / crossbarStageReg_3 $end
   $var wire 35 0 io_in_0 $end
   $var wire 35 1 io_in_3 $end
   $var wire 35 3 io_in_4 $end
   $var wire 35 4 io_in_1 $end
   $var wire 35 6 io_in_2 $end
   $var wire 35 : crossbarStageReg_0 $end
   $var wire 35 ; crossbarStageReg_1 $end
   $var wire 35 M io_out_4 $end
   $var wire 35 Q io_out_2 $end
   $var wire 35 S io_out_3 $end
   $var wire 35 U io_out_0 $end
   $var wire 35 V io_out_1 $end
   $var wire 1 b end_4 $end
   $var wire 1 c end_0 $end
   $var wire 1 d end_1 $end
   $var wire 1 e end_2 $end
   $var wire 1 f end_3 $end
   $var wire 2 q HPUStageReg_1_hi $end
   $var wire 2 s HPUStageReg_3_hi $end
   $var wire 33 t HPUStageReg_1_lo $end
   $var wire 33 "# HPUStageReg_3_lo $end
   $var wire 35 "0 HPUStageReg_4 $end
   $var wire 35 "1 HPUStageReg_0 $end
   $var wire 35 "3 HPUStageReg_1 $end
   $var wire 35 "5 HPUStageReg_2 $end
   $var wire 35 "7 HPUStageReg_3 $end
   $var wire 35 "O linkStageReg_4 $end
   $var wire 35 "P linkStageReg_3 $end
   $var wire 35 "R linkStageReg_2 $end
   $var wire 35 "S linkStageReg_1 $end
   $var wire 35 "T linkStageReg_0 $end
   $var wire 1 "h reset $end
   $var wire 2 "k HPUStageReg_0_hi $end
   $var wire 2 "| HPUStageReg_2_hi $end
   $var wire 33 "} HPUStageReg_0_lo $end
   $var wire 1 #" REG_4 $end
   $var wire 1 ## REG_3 $end
   $var wire 1 #$ REG_2 $end
   $var wire 1 #% REG_1 $end
   $var wire 1 #& REG $end
   $var wire 1 #' valid_3 $end
   $var wire 1 #( valid_4 $end
   $var wire 1 #) valid_1 $end
   $var wire 1 #* valid_2 $end
   $var wire 1 #+ valid_0 $end
   $var wire 32 #5 data_2 $end
   $var wire 32 #6 data_1 $end
   $var wire 32 #7 data_4 $end
   $var wire 32 #8 data_3 $end
   $var wire 32 #9 data_0 $end
   $var wire 2 #C HPUStageReg_4_hi $end
   $var wire 33 #D HPUStageReg_2_lo $end
   $var wire 33 #W HPUStageReg_4_lo $end
   $var wire 2 #g direction_4 $end
   $var wire 1 #n header_4 $end
   $var wire 1 #o header_2 $end
   $var wire 1 #p header_3 $end
   $var wire 1 #q header_0 $end
   $var wire 1 #r header_1 $end
   $var wire 2 #s direction_3 $end
   $var wire 2 #t direction_2 $end
   $var wire 2 #u direction_1 $end
   $var wire 2 #v direction_0 $end
   $var wire 1 #w clock $end
  $upscope $end
  $scope module router_1 $end
   $var wire 1 " valid_0 $end
   $var wire 1 # valid_1 $end
   $var wire 1 $ valid_4 $end
   $var wire 1 % valid_2 $end
   $var wire 1 & valid_3 $end
   $var wire 32 2 data_4 $end
   $var wire 32 5 data_2 $end
   $var wire 32 7 data_3 $end
   $var wire 32 8 data_0 $end
   $var wire 32 9 data_1 $end
   $var wire 33 = HPUStageReg_3_lo $end
   $var wire 1 k end_1 $end
   $var wire 1 l end_2 $end
   $var wire 1 m end_0 $end
   $var wire 1 n end_3 $end
   $var wire 1 o end_4 $end
   $var wire 1 v header_4 $end
   $var wire 1 w header_3 $end
   $var wire 1 x header_2 $end
   $var wire 1 y header_1 $end
   $var wire 1 z header_0 $end
   $var wire 2 { HPUStageReg_0_hi $end
   $var wire 1 "$ reset $end
   $var wire 2 "; direction_3 $end
   $var wire 2 "< direction_4 $end
   $var wire 2 "D direction_1 $end
   $var wire 2 "E direction_2 $end
   $var wire 2 "F direction_0 $end
   $var wire 2 "G HPUStageReg_2_hi $end
   $var wire 33 "I HPUStageReg_0_lo $end
   $var wire 33 "M HPUStageReg_4_lo $end
   $var wire 2 "j HPUStageReg_4_hi $end
   $var wire 1 "q REG $end
   $var wire 33 "s HPUStageReg_2_lo $end
   $var wire 35 "x io_in_2 $end
   $var wire 35 "y io_in_3 $end
   $var wire 35 "z io_in_0 $end
   $var wire 35 "{ io_in_1 $end
   $var wire 35 "~ io_in_4 $end
   $var wire 1 #> ongoing_4 $end
   $var wire 1 #? ongoing_3 $end
   $var wire 1 #@ ongoing_2 $end
   $var wire 1 #A ongoing_1 $end
   $var wire 1 #B ongoing_0 $end
   $var wire 1 #E clock $end
   $var wire 1 #G REG_2 $end
   $var wire 1 #H REG_3 $end
   $var wire 1 #I REG_4 $end
   $var wire 1 #J REG_1 $end
   $var wire 2 #` HPUStageReg_3_hi $end
   $var wire 35 #a crossbarStageReg_3 $end
   $var wire 35 #b crossbarStageReg_4 $end
   $var wire 35 #d crossbarStageReg_0 $end
   $var wire 35 #e crossbarStageReg_1 $end
   $var wire 35 #f crossbarStageReg_2 $end
   $var wire 33 #h HPUStageReg_1_lo $end
   $var wire 35 #x HPUStageReg_4 $end
   $var wire 35 #y HPUStageReg_3 $end
   $var wire 35 #z HPUStageReg_2 $end
   $var wire 35 #{ HPUStageReg_1 $end
   $var wire 35 #| HPUStageReg_0 $end
   $var wire 35 $% io_out_4 $end
   $var wire 35 $& io_out_3 $end
   $var wire 35 $' io_out_2 $end
   $var wire 35 $( io_out_1 $end
   $var wire 35 $) io_out_0 $end
   $var wire 2 $* HPUStageReg_1_hi $end
   $var wire 35 $0 linkStageReg_4 $end
   $var wire 35 $1 linkStageReg_1 $end
   $var wire 35 $2 linkStageReg_0 $end
   $var wire 35 $3 linkStageReg_3 $end
   $var wire 35 $4 linkStageReg_2 $end
  $upscope $end
  $scope module router_2 $end
   $var wire 33 ! HPUStageReg_0_lo $end
   $var wire 2 ' HPUStageReg_2_hi $end
   $var wire 1 K reset $end
   $var wire 1 N clock $end
   $var wire 1 W REG_3 $end
   $var wire 1 X REG_4 $end
   $var wire 1 Y REG_1 $end
   $var wire 1 Z REG_2 $end
   $var wire 2 [ direction_3 $end
   $var wire 2 \ direction_2 $end
   $var wire 2 ] direction_4 $end
   $var wire 2 h direction_1 $end
   $var wire 2 i direction_0 $end
   $var wire 2 p HPUStageReg_0_hi $end
   $var wire 35 "% crossbarStageReg_4 $end
   $var wire 35 "' crossbarStageReg_2 $end
   $var wire 35 ") crossbarStageReg_3 $end
   $var wire 35 "+ crossbarStageReg_0 $end
   $var wire 35 "- crossbarStageReg_1 $end
   $var wire 35 "? HPUStageReg_1 $end
   $var wire 35 "@ HPUStageReg_0 $end
   $var wire 35 "A HPUStageReg_4 $end
   $var wire 35 "B HPUStageReg_3 $end
   $var wire 35 "C HPUStageReg_2 $end
   $var wire 33 "H HPUStageReg_4_lo $end
   $var wire 33 "J HPUStageReg_2_lo $end
   $var wire 2 "K HPUStageReg_4_hi $end
   $var wire 33 "N HPUStageReg_1_lo $end
   $var wire 1 "Q REG $end
   $var wire 1 "U header_1 $end
   $var wire 1 "V ongoing_1 $end
   $var wire 1 "W header_0 $end
   $var wire 1 "X ongoing_0 $end
   $var wire 1 "Y header_3 $end
   $var wire 1 "Z header_2 $end
   $var wire 1 "[ header_4 $end
   $var wire 1 "\ ongoing_4 $end
   $var wire 1 "] ongoing_3 $end
   $var wire 1 "^ ongoing_2 $end
   $var wire 35 "_ linkStageReg_4 $end
   $var wire 35 "` linkStageReg_3 $end
   $var wire 35 "a linkStageReg_2 $end
   $var wire 35 "b linkStageReg_1 $end
   $var wire 35 "c linkStageReg_0 $end
   $var wire 2 "l HPUStageReg_1_hi $end
   $var wire 35 #, io_out_1 $end
   $var wire 35 #- io_out_0 $end
   $var wire 35 #. io_out_3 $end
   $var wire 35 #/ io_out_2 $end
   $var wire 35 #0 io_out_4 $end
   $var wire 35 #2 io_in_1 $end
   $var wire 35 #3 io_in_2 $end
   $var wire 35 #4 io_in_0 $end
   $var wire 35 #; io_in_3 $end
   $var wire 35 #< io_in_4 $end
   $var wire 1 #K end_1 $end
   $var wire 1 #L end_0 $end
   $var wire 1 #M end_3 $end
   $var wire 1 #N end_2 $end
   $var wire 1 #O end_4 $end
   $var wire 33 #c HPUStageReg_3_lo $end
   $var wire 32 #i data_4 $end
   $var wire 32 #j data_3 $end
   $var wire 32 #k data_2 $end
   $var wire 32 #l data_1 $end
   $var wire 32 #m data_0 $end
   $var wire 2 #} HPUStageReg_3_hi $end
   $var wire 1 $+ valid_4 $end
   $var wire 1 $, valid_3 $end
   $var wire 1 $- valid_2 $end
   $var wire 1 $. valid_1 $end
   $var wire 1 $/ valid_0 $end
  $upscope $end
  $scope module router_3 $end
   $var wire 35 < io_in_1 $end
   $var wire 35 > io_in_0 $end
   $var wire 35 C io_in_4 $end
   $var wire 35 D io_in_3 $end
   $var wire 35 E io_in_2 $end
   $var wire 35 F linkStageReg_1 $end
   $var wire 35 G linkStageReg_0 $end
   $var wire 35 H linkStageReg_3 $end
   $var wire 35 I linkStageReg_2 $end
   $var wire 35 J linkStageReg_4 $end
   $var wire 35 L io_out_0 $end
   $var wire 35 O io_out_3 $end
   $var wire 35 P io_out_4 $end
   $var wire 35 R io_out_1 $end
   $var wire 35 T io_out_2 $end
   $var wire 2 ^ direction_1 $end
   $var wire 2 _ direction_2 $end
   $var wire 2 ` direction_3 $end
   $var wire 2 a direction_4 $end
   $var wire 2 g direction_0 $end
   $var wire 2 j HPUStageReg_1_hi $end
   $var wire 33 u HPUStageReg_1_lo $end
   $var wire 32 | data_1 $end
   $var wire 32 } data_0 $end
   $var wire 32 ~ data_3 $end
   $var wire 32 "! data_2 $end
   $var wire 32 "" data_4 $end
   $var wire 1 ". valid_4 $end
   $var wire 33 "/ HPUStageReg_2_lo $end
   $var wire 1 "2 valid_3 $end
   $var wire 1 "4 valid_2 $end
   $var wire 1 "6 valid_1 $end
   $var wire 1 "8 valid_0 $end
   $var wire 2 "9 HPUStageReg_4_hi $end
   $var wire 1 ": reset $end
   $var wire 33 "= HPUStageReg_4_lo $end
   $var wire 1 "L REG $end
   $var wire 35 "d crossbarStageReg_1 $end
   $var wire 35 "e crossbarStageReg_2 $end
   $var wire 35 "f crossbarStageReg_3 $end
   $var wire 35 "g crossbarStageReg_4 $end
   $var wire 35 "i crossbarStageReg_0 $end
   $var wire 1 "m end_4 $end
   $var wire 1 "n end_3 $end
   $var wire 1 "o end_2 $end
   $var wire 1 "p end_1 $end
   $var wire 1 "r end_0 $end
   $var wire 2 #! HPUStageReg_0_hi $end
   $var wire 33 #1 HPUStageReg_0_lo $end
   $var wire 2 #: HPUStageReg_2_hi $end
   $var wire 2 #= HPUStageReg_3_hi $end
   $var wire 33 #F HPUStageReg_3_lo $end
   $var wire 1 #P header_0 $end
   $var wire 1 #Q ongoing_0 $end
   $var wire 1 #R ongoing_1 $end
   $var wire 1 #S ongoing_2 $end
   $var wire 1 #T ongoing_3 $end
   $var wire 1 #U ongoing_4 $end
   $var wire 1 #V REG_4 $end
   $var wire 1 #X header_3 $end
   $var wire 1 #Y header_4 $end
   $var wire 1 #Z header_1 $end
   $var wire 1 #[ header_2 $end
   $var wire 1 #\ REG_1 $end
   $var wire 1 #] REG_2 $end
   $var wire 1 #^ REG_3 $end
   $var wire 1 #_ clock $end
   $var wire 35 #~ HPUStageReg_3 $end
   $var wire 35 $! HPUStageReg_4 $end
   $var wire 35 $" HPUStageReg_1 $end
   $var wire 35 $# HPUStageReg_2 $end
   $var wire 35 $$ HPUStageReg_0 $end
  $upscope $end
$upscope $end
$enddefinitions $end
$dumpvars
b000000000000000000000000000000000 "I
b000000000000000000000000000000000 "H
b000000000000000000000000000000000 "J
b000000000000000000000000000000000 "M
b000000000000000000000000000000000 "N
b00 '
b00000000000000000000000000000000 7
b00000000000000000000000000000000 9
b00000000000000000000000000000000 8
b00000000000000000000000000000000 2
b00000000000000000000000000000000 5
0K
b000000000000000000000000000000000 "=
0N
b000000000000000000000000000000000 "#
0W
0X
0Y
0Z
b000000000000000000000000000000000 "/
0b
0c
0d
0e
0f
0k
0l
0m
0n
0o
0r
b000000000000000000000000000000000 #c
b00 #v
b00 #u
b000000000000000000000000000000000 #h
0v
0w
0x
0y
0z
b00 #}
b000000000000000000000000000000000 "s
b000000000000000000000000000000000 #W
b00 #g
b00 #t
b00 #s
b000000000000000000000000000000000 "}
b000000000000000000000000000000000 #D
b000000000000000000000000000000000 #F
b00 "|
b00 #`
b000000000000000000000000000000000 #1
b00 $*
b00 "k
0"$
b00 "j
0".
b00 "l
b00 #:
0"2
0"4
0"6
0"8
0":
b00 #C
0">
b00 #=
0#"
0##
0#$
b00 "K
0#%
0#&
b00 "E
0#'
b00 "D
0#(
b00 "G
0#)
b00 "F
0#*
0#+
0"L
0"Q
b00 "9
b00 ";
0"U
0"V
0"W
0"X
0"Y
0"Z
b00 #!
0"[
0"\
0"]
0#>
0"^
0#?
b00 "<
0#@
0#A
0#B
0#E
0#G
0#H
0"h
0#I
0#J
0$+
0#K
0$,
0#L
0$-
0#M
0$.
0"m
0#N
0$/
0"n
0#O
0"o
0#P
0"p
0#Q
0"q
0#R
0"r
0#S
0#T
0"t
0#U
0"u
0#V
0"v
0"w
0#X
0#Y
b00 {
0#Z
0#[
b00 q
0#\
b00 p
0#]
0#^
0#_
b00 s
b00 i
b00 h
b00 g
b00 j
b00 a
b00 `
b00 _
0#n
b00 ^
0#o
0#p
0#q
0#r
b00000000000000000000000000000000 #m
0#w
b00 ]
b00 \
b00 [
b00000000000000000000000000000000 #l
b00000000000000000000000000000000 #k
b00000000000000000000000000000000 #j
b00000000000000000000000000000000 #i
b000000000000000000000000000000000 u
b000000000000000000000000000000000 t
b00000000000000000000000000000000 #8
b00000000000000000000000000000000 #7
b00000000000000000000000000000000 #6
b00000000000000000000000000000000 #5
b00000000000000000000000000000000 #9
b00000000000000000000000000000000000 #x
b000000000000000000000000000000000 !
b00000000000000000000000000000000000 #~
b00000000000000000000000000000000000 #{
b00000000000000000000000000000000000 #|
b00000000000000000000000000000000000 #y
b00000000000000000000000000000000000 #z
b000000000000000000000000000000000 =
b00000000000000000000000000000000 ""
b00000000000000000000000000000000 "!
b00000000000000000000000000000000000 "T
b00000000000000000000000000000000000 "R
b00000000000000000000000000000000000 #3
b00000000000000000000000000000000000 "S
b00000000000000000000000000000000000 #4
b00000000000000000000000000000000000 "P
b00000000000000000000000000000000000 #2
b00000000000000000000000000000000000 "_
b00000000000000000000000000000000000 $!
b00000000000000000000000000000000000 #;
b00000000000000000000000000000000000 #<
b00000000000000000000000000000000000 "f
b00000000000000000000000000000000000 $(
b00000000000000000000000000000000000 "g
b00000000000000000000000000000000000 $)
b00000000000000000000000000000000000 -
b00000000000000000000000000000000000 "d
b00000000000000000000000000000000000 $&
b00000000000000000000000000000000000 "e
b00000000000000000000000000000000000 $'
b00000000000000000000000000000000000 "b
b00000000000000000000000000000000000 $$
b00000000000000000000000000000000000 0
b00000000000000000000000000000000000 "c
b00000000000000000000000000000000000 $%
b00000000000000000000000000000000000 1
b00000000000000000000000000000000000 "`
b00000000000000000000000000000000000 $"
b00000000000000000000000000000000000 .
b00000000000000000000000000000000000 "a
b00000000000000000000000000000000000 $#
b00000000000000000000000000000000000 /
b00000000000000000000000000000000000 $0
b00000000000000000000000000000000000 $1
b00000000000000000000000000000000000 "i
b00000000000000000000000000000000000 <
b00000000000000000000000000000000000 :
b00000000000000000000000000000000000 ;
b00000000000000000000000000000000000 $4
b00000000000000000000000000000000000 @
b00000000000000000000000000000000000 A
b00000000000000000000000000000000000 $2
b00000000000000000000000000000000000 >
b00000000000000000000000000000000000 $3
b00000000000000000000000000000000000 ?
b00000000000000000000000000000000000 "~
b00000000000000000000000000000000000 4
b00000000000000000000000000000000000 3
b00000000000000000000000000000000000 "z
b00000000000000000000000000000000000 "{
b00000000000000000000000000000000 ~
b00000000000000000000000000000000000 "x
b00000000000000000000000000000000000 6
b00000000000000000000000000000000000 "y
b00000000000000000000000000000000000 L
b00000000000000000000000000000000000 M
b00000000000000000000000000000000000 #e
b00000000000000000000000000000000000 J
b00000000000000000000000000000000000 #f
b00000000000000000000000000000000000 P
b00000000000000000000000000000000000 #d
b00000000000000000000000000000000000 Q
b00000000000000000000000000000000000 #a
b00000000000000000000000000000000000 #b
b00000000000000000000000000000000000 O
b00000000000000000000000000000000000 D
b00000000000000000000000000000000000 E
b00000000000000000000000000000000000 B
b00000000000000000000000000000000000 C
b00000000000000000000000000000000000 H
b00000000000000000000000000000000000 I
b00000000000000000000000000000000000 F
b00000000000000000000000000000000000 G
b00000000000000000000000000000000000 T
b00000000000000000000000000000000000 U
b00000000000000000000000000000000000 R
b00000000000000000000000000000000000 S
b00000000000000000000000000000000000 V
b00000000000000000000000000000000000 "&
b00000000000000000000000000000000000 "'
b00000000000000000000000000000000 }
b00000000000000000000000000000000000 "%
b00000000000000000000000000000000 |
b00000000000000000000000000000000000 ",
b00000000000000000000000000000000000 "-
b00000000000000000000000000000000000 "*
b00000000000000000000000000000000000 "+
b00000000000000000000000000000000000 "(
b00000000000000000000000000000000000 ")
b00000000000000000000000000000000000 "7
b00000000000000000000000000000000000 "5
b00000000000000000000000000000000000 "3
b00000000000000000000000000000000000 "0
b00000000000000000000000000000000000 "1
b00000000000000000000000000000000000 "?
0"
0#
0$
b00000000000000000000000000000000000 "B
0%
b00000000000000000000000000000000000 "C
0&
b00000000000000000000000000000000000 "@
b00000000000000000000000000000000000 "A
0(
b00000000000000000000000000000000000 #/
0)
b00000000000000000000000000000000000 "O
b00000000000000000000000000000000000 #0
0*
b00000000000000000000000000000000000 #-
0+
b00000000000000000000000000000000000 #.
0,
b00000000000000000000000000000000000 #,
$end
#0
1"$
1"h
1":
1K
1">
#1
1r
1#E
1#w
1#_
1N
#6
0"$
0#E
b11010011100001000101100000000000000 "&
0"h
0K
0N
0r
b11010011100001000101100000000000000 3
0#w
0":
0">
0#_
#11
b11 #C
1r
1#E
b10011100001000101100000000000000 #7
b001110000100010110000000000000000 #W
1#w
1#(
1#n
1#_
b11010011100001000101100000000000000 "O
1N
#16
0r
0#E
b00000000000000000000000000000000000 3
b00000000000000000000000000000000000 "&
0#w
0#_
0N
#21
b00 #C
1#E
b10 #g
0#(
0#n
1,
b00000000000000000000000000000000000 "O
1N
b11001110000100010110000000000000000 "0
1r
b00000000000000000000000000000000 #7
b000000000000000000000000000000000 #W
1#w
1#_
#26
0r
0#E
0#w
0#_
0N
#31
b11001110000100010110000000000000000 Q
1r
1#E
1#w
b11001110000100010110000000000000000 "y
1#_
b11001110000100010110000000000000000 .
1N
b00000000000000000000000000000000000 "0
#36
0r
0#E
0#w
0#_
0N
#41
1#E
1&
b00000000000000000000000000000000000 .
1N
b11001110000100010110000000000000000 $3
b00000000000000000000000000000000000 Q
1r
1#w
b01110000100010110000000000000000 7
1w
b00000000000000000000000000000000000 "y
1#_
b011000010001011000000000000000000 =
b11 #`
#46
0r
0#E
0#w
0#_
0N
#51
1#E
0&
1N
b00000000000000000000000000000000000 $3
1r
1#w
b11011000010001011000000000000000000 #y
b00000000000000000000000000000000 7
0w
b01 ";
1#?
1#_
b000000000000000000000000000000000 =
b00 #`
#56
0r
0#E
0#w
0#_
0N
#61
1r
1#E
b11011000010001011000000000000000000 #e
b11011000010001011000000000000000000 $(
1#w
b00000000000000000000000000000000000 #y
1#_
b11011000010001011000000000000000000 >
1N
#66
0r
0#E
0#w
0#_
0N
#71
1#E
b00000000000000000000000000000000000 #e
b00000000000000000000000000000000000 $(
b11011000010001011000000000000000000 G
1#P
1N
b000001000101100000000000000000000 #1
1r
1#w
1"8
1#_
b11000010001011000000000000000000 }
b00000000000000000000000000000000000 >
b11 #!
#76
0r
0#E
0#w
0#_
0N
#81
b11000001000101100000000000000000000 $$
1#E
b00000000000000000000000000000000000 G
b11 g
0#P
1N
b000000000000000000000000000000000 #1
1#Q
1r
1#w
0"8
1#_
b00000000000000000000000000000000 }
b00 #!
#86
0r
0#E
0#w
0#_
0N
#91
b11000001000101100000000000000000000 #3
b00000000000000000000000000000000000 $$
1r
1#E
b11000001000101100000000000000000000 "f
1#w
1#_
1N
b11000001000101100000000000000000000 O
#96
0r
0#E
0#w
0#_
0N
#101
1#E
b00000000000000000000000000000000000 "f
b11 '
b000100010110000000000000000000000 "J
b00001000101100000000000000000000 #k
1$-
1N
b00000000000000000000000000000000000 O
b00000000000000000000000000000000000 #3
1r
1#w
1"Z
1#_
b11000001000101100000000000000000000 "a
#106
0r
0#E
0#w
0#_
0N
#111
b11000100010110000000000000000000000 "C
1#E
b00 '
b000000000000000000000000000000000 "J
b00000000000000000000000000000000 #k
0$-
1N
1r
1#w
0"Z
1"^
1#_
b00000000000000000000000000000000000 "a
#116
0r
0#E
0#w
0#_
0N
#121
b00000000000000000000000000000000000 "C
1r
1#E
b11000100010110000000000000000000000 4
1#w
b11000100010110000000000000000000000 "+
b11000100010110000000000000000000000 #-
1#_
1N
#126
0r
0#E
0#w
0#_
0N
#131
1#E
1#)
b00000000000000000000000000000000000 "+
b00000000000000000000000000000000000 #-
1N
1#r
b11 q
b11000100010110000000000000000000000 "S
1r
b00100010110000000000000000000000 #6
b00000000000000000000000000000000000 4
b010001011000000000000000000000000 t
1#w
1#_
#136
0r
0#E
0#w
0#_
0N
#141
1#E
0#)
1+
1N
0#r
b00 q
b11010001011000000000000000000000000 "3
b00000000000000000000000000000000000 "S
1r
b00000000000000000000000000000000 #6
b000000000000000000000000000000000 t
1#w
1#_
#146
0r
0#E
0#w
0#_
0N
#151
b00000000000000000000000000000000000 "3
1r
1#E
1#w
b11010001011000000000000000000000000 U
b11010001011000000000000000000000000 :
1#_
1N
b11010001011000000000000000000000000 #2
#156
0r
0#E
0#w
0#_
0N
#161
b11010001011000000000000000000000000 "b
1#E
b10001011000000000000000000000000 #l
1$.
b11 "l
b000101100000000000000000000000000 "N
1N
b00000000000000000000000000000000000 #2
1r
1"U
1#w
b00000000000000000000000000000000000 U
b00000000000000000000000000000000000 :
1#_
#166
0r
0#E
0#w
0#_
0N
#171
b00000000000000000000000000000000000 "b
1#E
b10 h
b00000000000000000000000000000000 #l
0$.
b00 "l
b000000000000000000000000000000000 "N
1N
1r
0"U
1"V
1#w
1#_
b11000101100000000000000000000000000 "?
#176
0r
0#E
0#w
0#_
0N
#181
1r
1#E
b11000101100000000000000000000000000 D
1#w
b11000101100000000000000000000000000 "'
b11000101100000000000000000000000000 #/
1#_
b00000000000000000000000000000000000 "?
1N
#186
0r
0#E
0#w
0#_
0N
#191
1#E
b010110000000000000000000000000000 #F
b00000000000000000000000000000000000 D
b00000000000000000000000000000000000 "'
b11000101100000000000000000000000000 H
b00000000000000000000000000000000000 #/
1N
1"2
1r
1#w
1#X
b11 #=
1#_
b00101100000000000000000000000000 ~
#196
0r
0#E
0#w
0#_
0N
#201
1#E
b000000000000000000000000000000000 #F
b00000000000000000000000000000000000 H
1N
0"2
1#T
1r
1#w
0#X
b00 #=
b11010110000000000000000000000000000 #~
1#_
b00000000000000000000000000000000 ~
#206
0r
0#E
0#w
0#_
0N
#211
1r
1#E
1#w
b11010110000000000000000000000000000 "i
b11010110000000000000000000000000000 "{
b00000000000000000000000000000000000 #~
b11010110000000000000000000000000000 L
1#_
1N
#216
0r
0#E
0#w
0#_
0N
#221
1#E
1#
b011000000000000000000000000000000 #h
b11 $*
b00000000000000000000000000000000000 "i
b00000000000000000000000000000000000 L
b11010110000000000000000000000000000 $1
1N
1r
1#w
b10110000000000000000000000000000 9
1y
b00000000000000000000000000000000000 "{
1#_
#226
0r
0#E
0#w
0#_
0N
#231
b10 "D
1#E
0#
b000000000000000000000000000000000 #h
b00 $*
b00000000000000000000000000000000000 $1
1N
1r
1#w
b11011000000000000000000000000000000 #{
b00000000000000000000000000000000 9
0y
1#_
1#A
#236
0r
0#E
0#w
0#_
0N
#241
b11011000000000000000000000000000000 1
1r
1#E
b11011000000000000000000000000000000 $'
b11011000000000000000000000000000000 #f
1#w
b00000000000000000000000000000000000 #{
1#_
1N
#246
0r
0#E
0#w
0#_
0N
#251
1#E
b00000000000000000000000000000000000 $'
b00000000000000000000000000000000000 #f
1#'
1#p
1N
b11011000000000000000000000000000000 "P
b00000000000000000000000000000000000 1
1r
b11 s
1#w
b11000000000000000000000000000000 #8
1#_
#256
0r
0#E
0#w
0#_
0N
#261
1#E
0#'
1)
0#p
1N
b00000000000000000000000000000000000 "P
b11 #s
1r
b00 s
1#w
b11000000000000000000000000000000000 "7
b00000000000000000000000000000000 #8
1#_
#266
0r
0#E
0#w
0#_
0N
#271
b11000000000000000000000000000000000 A
1r
1#E
1#w
b00000000000000000000000000000000000 "7
1#_
b11000000000000000000000000000000000 -
b11000000000000000000000000000000000 M
1N
#276
0r
0#E
0#w
0#_
0N
#281
b00000000000000000000000000000000000 A
1r
1#E
1#w
1#_
b00000000000000000000000000000000000 -
b00000000000000000000000000000000000 M
1N
